<?xml version="1.0" encoding="iso-8859-1"?>
<!-- Generator: Adobe Illustrator 19.0.0, SVG Export Plug-In . SVG Version: 6.00 Build 0)  -->
<svg xmlns="http://www.w3.org/2000/svg" xmlns:xlink="http://www.w3.org/1999/xlink" version="1.1" id="Capa_1" x="0px" y="0px" viewBox="0 0 512.01 512.01" style="enable-background:new 0 0 512.01 512.01;" xml:space="preserve" width="512px" height="512px">
<g>
	<g>
		<g>
			<circle cx="256.005" cy="426.672" r="21.333" fill="#e8393a"/>
			<path d="M507.734,364.807l-42.667-32c-2.354-1.771-5.417-2.51-8.188-1.979c-2.896,0.49-5.458,2.156-7.083,4.594l-15.081,22.621     l-23.451-17.587c4.323-13.866,7.469-27.324,9.694-39.607c59.48-15.982,91.046-38.818,91.046-66.177     c0-25.064-27.113-44.852-68.138-59.073c-15.699-58.233-54.866-99.538-114.195-119.677c-6.604-31.573-43.625-55.917-73.667-55.917     s-67.063,24.344-73.667,55.917c-59.329,20.139-98.496,61.444-114.195,119.677C27.118,189.82,0.005,209.608,0.005,234.672     c0,27.363,31.572,50.202,91.044,66.172c2.224,12.284,5.371,25.745,9.695,39.612l-23.451,17.587l-15.081-22.621     c-1.625-2.438-4.188-4.104-7.083-4.594c-2.792-0.521-5.854,0.208-8.188,1.979l-42.667,32c-4.542,3.396-5.625,9.74-2.479,14.448     l85.333,128c1.625,2.438,4.188,4.104,7.083,4.594c0.583,0.104,1.188,0.156,1.792,0.156c2.292,0,4.542-0.74,6.396-2.135l42.667-32     c4.542-3.396,5.625-9.74,2.479-14.448l-15.74-23.608l17.717-13.29c6.999,7.056,14.826,13.441,23.436,19.099     c8.661,37.931,42.517,66.383,83.044,66.383s74.383-28.452,83.044-66.383c8.611-5.658,16.438-12.043,23.436-19.099l17.717,13.29     l-15.74,23.608c-3.146,4.708-2.063,11.052,2.479,14.448l42.667,32c1.854,1.396,4.104,2.135,6.396,2.135     c0.604,0,1.208-0.052,1.792-0.156c2.896-0.49,5.458-2.156,7.083-4.594l85.333-128     C513.359,374.547,512.276,368.203,507.734,364.807z M237.838,76.453c2.396-0.979,5.813-2.385,7.5-3.448V53.338     c0-3.885,2.104-7.458,5.5-9.333c3.438-1.885,7.563-1.75,10.854,0.302c3.771,2.385,36.979,24.073,36.979,51.677     c0,10.729-6.208,19.802-17.479,25.573c-8.125,4.156-18.583,6.448-29.479,6.448c-22.958,0-38.375-10.01-38.375-24.917     C213.338,86.516,228.672,80.213,237.838,76.453z M256.005,469.339c-23.521,0-42.667-19.135-42.667-42.667     s19.146-42.667,42.667-42.667s42.667,19.135,42.667,42.667S279.526,469.339,256.005,469.339z M340.449,417.879     c-4.471-42.878-40.393-76.54-84.444-76.54c-44.049,0-79.97,33.66-84.444,76.535c-56.212-49.197-63.771-144.667-64.743-167.546     c31.563-24.219,82.979-36.99,149.188-36.99s117.625,12.771,149.188,36.99C404.258,273.202,396.77,368.637,340.449,417.879z" fill="#e8393a"/>
			<path d="M178.213,263.547c4.167-4.167,4.167-10.917,0-15.083c-4.167-4.167-10.917-4.167-15.083,0l-21.333,21.333     c-4.167,4.167-4.167,10.917,0,15.083c2.083,2.083,4.813,3.125,7.542,3.125c2.729,0,5.458-1.042,7.542-3.125L178.213,263.547z" fill="#e8393a"/>
			<path d="M195.13,269.797l-42.667,42.667c-4.167,4.167-4.167,10.917,0,15.083c2.083,2.083,4.813,3.125,7.542,3.125     s5.458-1.042,7.542-3.125l42.667-42.667c4.167-4.167,4.167-10.917,0-15.083C206.047,265.63,199.297,265.63,195.13,269.797z" fill="#e8393a"/>
		</g>
	</g>
</g>
<g>
</g>
<g>
</g>
<g>
</g>
<g>
</g>
<g>
</g>
<g>
</g>
<g>
</g>
<g>
</g>
<g>
</g>
<g>
</g>
<g>
</g>
<g>
</g>
<g>
</g>
<g>
</g>
<g>
</g>
</svg>
